program/01_fibonacci/sim/dump.vcd
$date
	Wed Apr 29 21:33:14 2020
$end
$version
	Icarus Verilog
$end
$timescale
	100ps
$end
$scope module sm_testbench $end
$scope module sm_top $end
$scope module sm_cpu $end
$scope module rf $end
$var reg 32 ! \rf[0] [31:0] $end
$upscope $end
$upscope $end
$upscope $end
$upscope $end
$scope module sm_testbench $end
$scope module sm_top $end
$scope module sm_cpu $end
$scope module rf $end
$var reg 32 " \rf[1] [31:0] $end
$upscope $end
$upscope $end
$upscope $end
$upscope $end
$scope module sm_testbench $end
$scope module sm_top $end
$scope module sm_cpu $end
$scope module rf $end
$var reg 32 # \rf[2] [31:0] $end
$upscope $end
$upscope $end
$upscope $end
$upscope $end
$scope module sm_testbench $end
$scope module sm_top $end
$scope module sm_cpu $end
$scope module rf $end
$var reg 32 $ \rf[3] [31:0] $end
$upscope $end
$upscope $end
$upscope $end
$upscope $end
$scope module sm_testbench $end
$scope module sm_top $end
$scope module sm_cpu $end
$scope module rf $end
$var reg 32 % \rf[4] [31:0] $end
$upscope $end
$upscope $end
$upscope $end
$upscope $end
$scope module sm_testbench $end
$scope module sm_top $end
$scope module sm_cpu $end
$scope module rf $end
$var reg 32 & \rf[5] [31:0] $end
$upscope $end
$upscope $end
$upscope $end
$upscope $end
$scope module sm_testbench $end
$scope module sm_top $end
$scope module sm_cpu $end
$scope module rf $end
$var reg 32 ' \rf[6] [31:0] $end
$upscope $end
$upscope $end
$upscope $end
$upscope $end
$scope module sm_testbench $end
$scope module sm_top $end
$scope module sm_cpu $end
$scope module rf $end
$var reg 32 ( \rf[7] [31:0] $end
$upscope $end
$upscope $end
$upscope $end
$upscope $end
$scope module sm_testbench $end
$scope module sm_top $end
$scope module sm_cpu $end
$scope module rf $end
$var reg 32 ) \rf[8] [31:0] $end
$upscope $end
$upscope $end
$upscope $end
$upscope $end
$scope module sm_testbench $end
$scope module sm_top $end
$scope module sm_cpu $end
$scope module rf $end
$var reg 32 * \rf[9] [31:0] $end
$upscope $end
$upscope $end
$upscope $end
$upscope $end
$scope module sm_testbench $end
$scope module sm_top $end
$scope module sm_cpu $end
$scope module rf $end
$var reg 32 + \rf[10] [31:0] $end
$upscope $end
$upscope $end
$upscope $end
$upscope $end
$scope module sm_testbench $end
$scope module sm_top $end
$scope module sm_cpu $end
$scope module rf $end
$var reg 32 , \rf[11] [31:0] $end
$upscope $end
$upscope $end
$upscope $end
$upscope $end
$scope module sm_testbench $end
$scope module sm_top $end
$scope module sm_cpu $end
$scope module rf $end
$var reg 32 - \rf[12] [31:0] $end
$upscope $end
$upscope $end
$upscope $end
$upscope $end
$scope module sm_testbench $end
$scope module sm_top $end
$scope module sm_cpu $end
$scope module rf $end
$var reg 32 . \rf[13] [31:0] $end
$upscope $end
$upscope $end
$upscope $end
$upscope $end
$scope module sm_testbench $end
$scope module sm_top $end
$scope module sm_cpu $end
$scope module rf $end
$var reg 32 / \rf[14] [31:0] $end
$upscope $end
$upscope $end
$upscope $end
$upscope $end
$scope module sm_testbench $end
$scope module sm_top $end
$scope module sm_cpu $end
$scope module rf $end
$var reg 32 0 \rf[15] [31:0] $end
$upscope $end
$upscope $end
$upscope $end
$upscope $end
$scope module sm_testbench $end
$scope module sm_top $end
$scope module sm_cpu $end
$scope module rf $end
$var reg 32 1 \rf[16] [31:0] $end
$upscope $end
$upscope $end
$upscope $end
$upscope $end
$scope module sm_testbench $end
$scope module sm_top $end
$scope module sm_cpu $end
$scope module rf $end
$var reg 32 2 \rf[17] [31:0] $end
$upscope $end
$upscope $end
$upscope $end
$upscope $end
$scope module sm_testbench $end
$scope module sm_top $end
$scope module sm_cpu $end
$scope module rf $end
$var reg 32 3 \rf[18] [31:0] $end
$upscope $end
$upscope $end
$upscope $end
$upscope $end
$scope module sm_testbench $end
$scope module sm_top $end
$scope module sm_cpu $end
$scope module rf $end
$var reg 32 4 \rf[19] [31:0] $end
$upscope $end
$upscope $end
$upscope $end
$upscope $end
$scope module sm_testbench $end
$scope module sm_top $end
$scope module sm_cpu $end
$scope module rf $end
$var reg 32 5 \rf[20] [31:0] $end
$upscope $end
$upscope $end
$upscope $end
$upscope $end
$scope module sm_testbench $end
$scope module sm_top $end
$scope module sm_cpu $end
$scope module rf $end
$var reg 32 6 \rf[21] [31:0] $end
$upscope $end
$upscope $end
$upscope $end
$upscope $end
$scope module sm_testbench $end
$scope module sm_top $end
$scope module sm_cpu $end
$scope module rf $end
$var reg 32 7 \rf[22] [31:0] $end
$upscope $end
$upscope $end
$upscope $end
$upscope $end
$scope module sm_testbench $end
$scope module sm_top $end
$scope module sm_cpu $end
$scope module rf $end
$var reg 32 8 \rf[23] [31:0] $end
$upscope $end
$upscope $end
$upscope $end
$upscope $end
$scope module sm_testbench $end
$scope module sm_top $end
$scope module sm_cpu $end
$scope module rf $end
$var reg 32 9 \rf[24] [31:0] $end
$upscope $end
$upscope $end
$upscope $end
$upscope $end
$scope module sm_testbench $end
$scope module sm_top $end
$scope module sm_cpu $end
$scope module rf $end
$var reg 32 : \rf[25] [31:0] $end
$upscope $end
$upscope $end
$upscope $end
$upscope $end
$scope module sm_testbench $end
$scope module sm_top $end
$scope module sm_cpu $end
$scope module rf $end
$var reg 32 ; \rf[26] [31:0] $end
$upscope $end
$upscope $end
$upscope $end
$upscope $end
$scope module sm_testbench $end
$scope module sm_top $end
$scope module sm_cpu $end
$scope module rf $end
$var reg 32 < \rf[27] [31:0] $end
$upscope $end
$upscope $end
$upscope $end
$upscope $end
$scope module sm_testbench $end
$scope module sm_top $end
$scope module sm_cpu $end
$scope module rf $end
$var reg 32 = \rf[28] [31:0] $end
$upscope $end
$upscope $end
$upscope $end
$upscope $end
$scope module sm_testbench $end
$scope module sm_top $end
$scope module sm_cpu $end
$scope module rf $end
$var reg 32 > \rf[29] [31:0] $end
$upscope $end
$upscope $end
$upscope $end
$upscope $end
$scope module sm_testbench $end
$scope module sm_top $end
$scope module sm_cpu $end
$scope module rf $end
$var reg 32 ? \rf[30] [31:0] $end
$upscope $end
$upscope $end
$upscope $end
$upscope $end
$scope module sm_testbench $end
$scope module sm_top $end
$scope module sm_cpu $end
$scope module rf $end
$var reg 32 @ \rf[31] [31:0] $end
$upscope $end
$upscope $end
$upscope $end
$upscope $end
$scope module sm_testbench $end
$var wire 1 A cpuClk $end
$var wire 32 B regData [31:0] $end
$var reg 1 C clk $end
$var integer 32 D cycle [31:0] $end
$var integer 32 E i [31:0] $end
$var reg 5 F regAddr [4:0] $end
$var reg 1 G rst_n $end
$scope module sm_top $end
$var wire 5 H addr [4:0] $end
$var wire 1 A clk $end
$var wire 4 I clkDevide [3:0] $end
$var wire 1 J clkEnable $end
$var wire 1 K clkIn $end
$var wire 4 L devide [3:0] $end
$var wire 1 M enable $end
$var wire 32 N imAddr [31:0] $end
$var wire 32 O imData [31:0] $end
$var wire 5 P regAddr [4:0] $end
$var wire 32 Q regData [31:0] $end
$var wire 1 R rst_n $end
$scope module f0 $end
$var wire 1 K clk $end
$var wire 4 S d [3:0] $end
$var reg 4 T data [3:0] $end
$var reg 4 U q [3:0] $end
$upscope $end
$scope module f1 $end
$var wire 1 K clk $end
$var wire 1 J d $end
$var reg 1 V data $end
$var reg 1 W q $end
$upscope $end
$scope module f2 $end
$var wire 1 K clk $end
$var wire 5 X d [4:0] $end
$var reg 5 Y data [4:0] $end
$var reg 5 Z q [4:0] $end
$upscope $end
$scope module sm_clk_divider $end
$var wire 1 K clkIn $end
$var wire 1 A clkOut $end
$var wire 32 [ cntr [31:0] $end
$var wire 32 \ cntrNext [31:0] $end
$var wire 4 ] devide [3:0] $end
$var wire 1 M enable $end
$var wire 1 R rst_n $end
$scope module r_cntr $end
$var wire 1 K clk $end
$var wire 32 ^ d [31:0] $end
$var wire 1 R rst $end
$var wire 1 M we $end
$var reg 32 _ q [31:0] $end
$upscope $end
$upscope $end
$scope module reset_rom $end
$var wire 32 ` a [31:0] $end
$var wire 32 a rd [31:0] $end
$upscope $end
$scope module sm_cpu $end
$var wire 5 b a3 [4:0] $end
$var wire 3 c aluControl [2:0] $end
$var wire 1 d aluSrc $end
$var wire 1 e aluZero $end
$var wire 1 A clk $end
$var wire 32 f imAddr [31:0] $end
$var wire 32 g imData [31:0] $end
$var wire 32 h instr [31:0] $end
$var wire 32 i pc [31:0] $end
$var wire 32 j pcBranch [31:0] $end
$var wire 32 k pcNext [31:0] $end
$var wire 1 l pcSrc $end
$var wire 32 m pc_new [31:0] $end
$var wire 32 n rd0 [31:0] $end
$var wire 32 o rd1 [31:0] $end
$var wire 32 p rd2 [31:0] $end
$var wire 5 q regAddr [4:0] $end
$var wire 32 r regData [31:0] $end
$var wire 1 s regDst $end
$var wire 1 t regWrite $end
$var wire 1 R rst_n $end
$var wire 32 u signImm [31:0] $end
$var wire 32 v srcB [31:0] $end
$var wire 32 w wd3 [31:0] $end
$scope module r_pc $end
$var wire 1 A clk $end
$var wire 32 x d [31:0] $end
$var wire 1 R rst $end
$var reg 32 y q [31:0] $end
$upscope $end
$scope module rf $end
$var wire 5 z a0 [4:0] $end
$var wire 5 { a1 [4:0] $end
$var wire 5 | a2 [4:0] $end
$var wire 5 } a3 [4:0] $end
$var wire 1 A clk $end
$var wire 32 ~ rd0 [31:0] $end
$var wire 32 !" rd1 [31:0] $end
$var wire 32 "" rd2 [31:0] $end
$var wire 32 #" wd3 [31:0] $end
$var wire 1 t we3 $end
$upscope $end
$scope module alu $end
$var wire 3 $" oper [2:0] $end
$var wire 5 %" shift [4:0] $end
$var wire 32 &" srcA [31:0] $end
$var wire 32 '" srcB [31:0] $end
$var wire 1 e zero $end
$var reg 32 (" result [31:0] $end
$upscope $end
$scope module sm_control $end
$var wire 1 e aluZero $end
$var wire 6 )" cmdFunk [5:0] $end
$var wire 6 *" cmdOper [5:0] $end
$var wire 1 l pcSrc $end
$var reg 3 +" aluControl [2:0] $end
$var reg 1 ," aluSrc $end
$var reg 1 -" branch $end
$var reg 1 ." condZero $end
$var reg 1 /" regDst $end
$var reg 1 0" regWrite $end
$upscope $end
$upscope $end
$upscope $end
$scope begin genblk1 $end
$upscope $end
$scope begin genblk01 $end
$upscope $end
$scope begin genblk001 $end
$upscope $end
$scope begin genblk0001 $end
$upscope $end
$scope begin genblk00001 $end
$upscope $end
$scope begin genblk000001 $end
$upscope $end
$scope begin genblk0000001 $end
$upscope $end
$scope begin genblk00000001 $end
$upscope $end
$scope begin genblk000000001 $end
$upscope $end
$scope begin genblk0000000001 $end
$upscope $end
$scope begin genblk00000000001 $end
$upscope $end
$scope begin genblk000000000001 $end
$upscope $end
$scope begin genblk0000000000001 $end
$upscope $end
$scope begin genblk00000000000001 $end
$upscope $end
$scope begin genblk000000000000001 $end
$upscope $end
$scope begin genblk0000000000000001 $end
$upscope $end
$scope begin genblk00000000000000001 $end
$upscope $end
$scope begin genblk000000000000000001 $end
$upscope $end
$scope begin genblk0000000000000000001 $end
$upscope $end
$scope begin genblk00000000000000000001 $end
$upscope $end
$scope begin genblk000000000000000000001 $end
$upscope $end
$scope begin genblk0000000000000000000001 $end
$upscope $end
$scope begin genblk00000000000000000000001 $end
$upscope $end
$scope begin genblk000000000000000000000001 $end
$upscope $end
$scope begin genblk0000000000000000000000001 $end
$upscope $end
$scope begin $gen1[25] $end
$upscope $end
$scope begin $gen1[26] $end
$upscope $end
$scope begin $gen1[27] $end
$upscope $end
$scope begin $gen1[28] $end
$upscope $end
$scope begin $gen1[29] $end
$upscope $end
$scope begin $gen1[30] $end
$upscope $end
$scope begin $gen1[31] $end
$upscope $end
$scope task disasmInstr $end
$var reg 6 1" cmdFunk [5:0] $end
$var reg 16 2" cmdImm [15:0] $end
$var reg 16 3" cmdImmS [15:0] $end
$var reg 6 4" cmdOper [5:0] $end
$var reg 5 5" cmdRd [4:0] $end
$var reg 5 6" cmdRs [4:0] $end
$var reg 5 7" cmdRt [4:0] $end
$var reg 5 8" cmdSa [4:0] $end
$var reg 32 9" instr [31:0] $end
$upscope $end
$upscope $end
$enddefinitions $end
#0
$dumpvars
bx 9"
bx 8"
bx 7"
bx 6"
bx 5"
bx 4"
bx 3"
bx 2"
bx 1"
10"
1/"
0."
0-"
0,"
b0 +"
b0 *"
b100001 )"
b0 ("
b0 '"
b0 &"
b0 %"
b0 $"
b0 #"
b0 ""
b0 !"
bx ~
b1000 }
b0 |
b0 {
bx z
b0 y
b1 x
b0 w
b0 v
b100000000100001 u
1t
1s
bx r
bx q
b0 p
b0 o
bx n
b1 m
0l
b1 k
b100000000100010 j
b0 i
b100000000100001 h
b100000000100001 g
b0 f
1e
0d
b0 c
b1000 b
b100000000100001 a
b0 `
b0 _
b1 ^
bx ]
b1 \
b0 [
bx Z
bx Y
b0 X
xW
xV
bx U
bx T
b0 S
0R
bx Q
b0 P
b100000000100001 O
b0 N
xM
bx L
0K
1J
b0 I
bx H
0G
b0 F
b100000 E
b0 D
0C
bx B
0A
b0 @
b0 ?
b0 >
b0 =
b0 <
b0 ;
b0 :
b0 9
b0 8
b0 7
b0 6
b0 5
b0 4
b0 3
b0 2
b0 1
b0 0
b0 /
b0 .
b0 -
b0 ,
b0 +
b0 *
b0 )
b0 (
b0 '
b0 &
b0 %
b0 $
b0 #
b0 "
b0 !
$end
#100
b0 T
1V
b0 Y
b0 )
b1 D
b100000000100001 3"
b100000000100001 2"
b0 8"
b1000 5"
b0 7"
b0 6"
b100001 1"
b0 4"
b100000000100001 9"
1C
1K
1A
#200
0C
0K
0A
#300
b0 B
b0 Q
b0 r
b0 n
b0 ~
b0 Z
b0 H
b0 q
b0 z
1W
1M
b0 U
b0 L
b0 ]
b0 )
b10 D
1C
1K
1A
#400
0C
0K
0A
#500
b0 )
b11 D
1C
1K
1A
#600
0C
0K
0A
#700
b10 \
b10 ^
b1 _
b1 [
b0 )
b100 D
1G
1R
1C
1K
1A
#800
0C
0K
0A
#900
b1 ("
0e
b1 w
b1 #"
b1 v
b1 '"
b10 m
b10 x
b1001 b
b1001 }
1,"
1d
10"
1t
0/"
0s
b11 \
b11 ^
b1 B
b1 Q
b1 r
b10 k
b1001 |
b11 j
b1 u
b1001 *"
b1 )"
b10 _
b10 [
b0 )
b1 y
b1 i
b100100000010010000000000000001 h
b100100000010010000000000000001 O
b100100000010010000000000000001 a
b100100000010010000000000000001 g
b1 N
b1 `
b1 f
b101 D
1C
1K
1A
#1000
0C
0K
0A
#1100
b10 b
b10 }
b11 m
b11 x
1/"
1s
0,"
0d
10"
1t
b100 \
b100 ^
b1 p
b1 ""
b10 B
b10 Q
b10 r
b11 k
b1000000100100 j
b1000000100001 u
b0 *"
b100001 )"
b11 _
b11 [
b1 *
b10 y
b10 i
b10010001000000100001 h
b10010001000000100001 O
b10010001000000100001 a
b10010001000000100001 g
b10 N
b10 `
b10 f
b110 D
b1 3"
b1 2"
b0 5"
b1001 7"
b1 1"
b1001 4"
b100100000010010000000000000001 9"
1C
1K
1A
#1200
0C
0K
0A
#1300
b100 m
b100 x
b1000 b
b1000 }
b101 \
b101 ^
b11 B
b11 Q
b11 r
b100 k
b1000 {
b100000000100101 j
b100000000100001 u
b100 _
b100 [
b1 #
b11 y
b11 i
b1000010010100000000100001 h
b1000010010100000000100001 O
b1000010010100000000100001 a
b1000010010100000000100001 g
b11 N
b11 `
b11 f
b111 D
b1000000100001 3"
b1000000100001 2"
b10 5"
b100001 1"
b0 4"
b10010001000000100001 9"
1C
1K
1A
#1400
0C
0K
0A
#1500
b101 m
b101 x
b10 b
b10 }
b110 \
b110 ^
b100 B
b100 Q
b100 r
b101 k
b0 {
b1000 |
b1000000100110 j
b1000000100001 u
b101 _
b101 [
b1 )
b100 y
b100 i
b10000001000000100001 h
b10000001000000100001 O
b10000001000000100001 a
b10000001000000100001 g
b100 N
b100 `
b100 f
b1000 D
b100000000100001 3"
b100000000100001 2"
b1000 5"
b1000 6"
b1000010010100000000100001 9"
1C
1K
1A
#1600
0C
0K
0A
#1700
b10 ("
b10 w
b10 #"
b110 m
b110 x
b1001 b
b1001 }
b1 o
b1 !"
b1 &"
b111 \
b111 ^
b101 B
b101 Q
b101 r
b110 k
b1000 {
b1001 |
b100100000100111 j
b100100000100001 u
b110 _
b110 [
b1 #
b101 y
b101 i
b1000010010100100000100001 h
b1000010010100100000100001 O
b1000010010100100000100001 a
b1000010010100100000100001 g
b101 N
b101 `
b101 f
b1001 D
b1000000100001 3"
b1000000100001 2"
b10 5"
b1000 7"
b0 6"
b10000001000000100001 9"
1C
1K
1A
#1800
0C
0K
0A
#1900
b10 v
b10 '"
b111 m
b111 x
b10 b
b10 }
b0 o
b0 !"
b0 &"
b1000 \
b1000 ^
b10 p
b10 ""
b110 B
b110 Q
b110 r
b111 k
b0 {
b1000000101000 j
b1000000100001 u
b111 _
b111 [
b10 *
b110 y
b110 i
b10010001000000100001 h
b10010001000000100001 O
b10010001000000100001 a
b10010001000000100001 g
b110 N
b110 `
b110 f
b1010 D
b100100000100001 3"
b100100000100001 2"
b1001 5"
b1001 7"
b1000 6"
b1000010010100100000100001 9"
1C
1K
1A
#2000
0C
0K
0A
#2100
1e
b0 v
b0 '"
1l
b11 m
b11 x
b0 b
b0 }
b0 p
b0 ""
b0 ("
b0 w
b0 #"
b101 +"
b101 c
b101 $"
1."
1-"
00"
0t
0/"
0s
b1001 \
b1001 ^
b111 B
b111 Q
b111 r
b1000 k
b0 |
b11 j
b11111111111111111111111111111011 u
b11111 %"
b100 *"
b111011 )"
b1000 _
b1000 [
b10 #
b111 y
b111 i
b10000000000001111111111111011 h
b10000000000001111111111111011 O
b10000000000001111111111111011 a
b10000000000001111111111111011 g
b111 N
b111 `
b111 f
b1011 D
b1000000100001 3"
b1000000100001 2"
b10 5"
b0 6"
b10010001000000100001 9"
1C
1K
1A
#2200
0C
0K
0A
#2300
b11 ("
0e
b11 w
b11 #"
b10 v
b10 '"
0l
b1000 b
b1000 }
b1 o
b1 !"
b1 &"
b10 p
b10 ""
b100 m
b100 x
10"
1t
1/"
1s
b0 +"
b0 c
b0 $"
0."
0-"
b1010 \
b1010 ^
b11 B
b11 Q
b11 r
b100 k
b1000 {
b1001 |
b100000000100101 j
b100000000100001 u
b0 %"
b0 *"
b100001 )"
b1001 _
b1001 [
b11 y
b11 i
b1000010010100000000100001 h
b1000010010100000000100001 O
b1000010010100000000100001 a
b1000010010100000000100001 g
b11 N
b11 `
b11 f
b1100 D
b1111111111111011 3"
b1111111111111011 2"
b11111 8"
b11111 5"
b0 7"
b111011 1"
b100 4"
b10000000000001111111111111011 9"
1C
1K
1A
#2400
0C
0K
0A
#2500
b11 v
b11 '"
b11 ("
b11 w
b11 #"
b101 m
b101 x
b10 b
b10 }
b11 p
b11 ""
b1011 \
b1011 ^
b0 o
b0 !"
b0 &"
b100 B
b100 Q
b100 r
b101 k
b0 {
b1000 |
b1000000100110 j
b1000000100001 u
b1010 _
b1010 [
b11 )
b100 y
b100 i
b10000001000000100001 h
b10000001000000100001 O
b10000001000000100001 a
b10000001000000100001 g
b100 N
b100 `
b100 f
b1101 D
b100000000100001 3"
b100000000100001 2"
b0 8"
b1000 5"
b1001 7"
b1000 6"
b100001 1"
b0 4"
b1000010010100000000100001 9"
1C
1K
1A
#2600
0C
0K
0A
#2700
b101 ("
b101 w
b101 #"
b10 v
b10 '"
b110 m
b110 x
b1001 b
b1001 }
b11 o
b11 !"
b11 &"
b10 p
b10 ""
b1100 \
b1100 ^
b101 B
b101 Q
b101 r
b110 k
b1000 {
b1001 |
b100100000100111 j
b100100000100001 u
b1011 _
b1011 [
b11 #
b101 y
b101 i
b1000010010100100000100001 h
b1000010010100100000100001 O
b1000010010100100000100001 a
b1000010010100100000100001 g
b101 N
b101 `
b101 f
b1110 D
b1000000100001 3"
b1000000100001 2"
b10 5"
b1000 7"
b0 6"
b10000001000000100001 9"
1C
1K
1A
#2800
0C
0K
0A
#2900
b101 v
b101 '"
b111 m
b111 x
b10 b
b10 }
b0 o
b0 !"
b0 &"
b1101 \
b1101 ^
b101 p
b101 ""
b110 B
b110 Q
b110 r
b111 k
b0 {
b1000000101000 j
b1000000100001 u
b1100 _
b1100 [
b101 *
b110 y
b110 i
b10010001000000100001 h
b10010001000000100001 O
b10010001000000100001 a
b10010001000000100001 g
b110 N
b110 `
b110 f
b1111 D
b100100000100001 3"
b100100000100001 2"
b1001 5"
b1001 7"
b1000 6"
b1000010010100100000100001 9"
1C
1K
1A
#3000
0C
0K
0A
#3100
1e
b0 v
b0 '"
1l
b11 m
b11 x
b0 b
b0 }
b0 p
b0 ""
b0 ("
b0 w
b0 #"
b101 +"
b101 c
b101 $"
1."
1-"
00"
0t
0/"
0s
b1110 \
b1110 ^
b111 B
b111 Q
b111 r
b1000 k
b0 |
b11 j
b11111111111111111111111111111011 u
b11111 %"
b100 *"
b111011 )"
b1101 _
b1101 [
b101 #
b111 y
b111 i
b10000000000001111111111111011 h
b10000000000001111111111111011 O
b10000000000001111111111111011 a
b10000000000001111111111111011 g
b111 N
b111 `
b111 f
b10000 D
b1000000100001 3"
b1000000100001 2"
b10 5"
b0 6"
b10010001000000100001 9"
1C
1K
1A
#3200
0C
0K
0A
#3300
b1000 ("
0e
b1000 w
b1000 #"
b101 v
b101 '"
0l
b1000 b
b1000 }
b11 o
b11 !"
b11 &"
b101 p
b101 ""
b100 m
b100 x
10"
1t
1/"
1s
b0 +"
b0 c
b0 $"
0."
0-"
b1111 \
b1111 ^
b11 B
b11 Q
b11 r
b100 k
b1000 {
b1001 |
b100000000100101 j
b100000000100001 u
b0 %"
b0 *"
b100001 )"
b1110 _
b1110 [
b11 y
b11 i
b1000010010100000000100001 h
b1000010010100000000100001 O
b1000010010100000000100001 a
b1000010010100000000100001 g
b11 N
b11 `
b11 f
b10001 D
b1111111111111011 3"
b1111111111111011 2"
b11111 8"
b11111 5"
b0 7"
b111011 1"
b100 4"
b10000000000001111111111111011 9"
1C
1K
1A
#3400
0C
0K
0A
#3500
b1000 v
b1000 '"
b1000 ("
b1000 w
b1000 #"
b101 m
b101 x
b10 b
b10 }
b1000 p
b1000 ""
b10000 \
b10000 ^
b0 o
b0 !"
b0 &"
b100 B
b100 Q
b100 r
b101 k
b0 {
b1000 |
b1000000100110 j
b1000000100001 u
b1111 _
b1111 [
b1000 )
b100 y
b100 i
b10000001000000100001 h
b10000001000000100001 O
b10000001000000100001 a
b10000001000000100001 g
b100 N
b100 `
b100 f
b10010 D
b100000000100001 3"
b100000000100001 2"
b0 8"
b1000 5"
b1001 7"
b1000 6"
b100001 1"
b0 4"
b1000010010100000000100001 9"
1C
1K
1A
#3600
0C
0K
0A
#3700
b1101 ("
b1101 w
b1101 #"
b101 v
b101 '"
b110 m
b110 x
b1001 b
b1001 }
b1000 o
b1000 !"
b1000 &"
b101 p
b101 ""
b10001 \
b10001 ^
b101 B
b101 Q
b101 r
b110 k
b1000 {
b1001 |
b100100000100111 j
b100100000100001 u
b10000 _
b10000 [
b1000 #
b101 y
b101 i
b1000010010100100000100001 h
b1000010010100100000100001 O
b1000010010100100000100001 a
b1000010010100100000100001 g
b101 N
b101 `
b101 f
b10011 D
b1000000100001 3"
b1000000100001 2"
b10 5"
b1000 7"
b0 6"
b10000001000000100001 9"
1C
1K
1A
#3800
0C
0K
0A
#3900
b1101 v
b1101 '"
b111 m
b111 x
b10 b
b10 }
b0 o
b0 !"
b0 &"
b10010 \
b10010 ^
b1101 p
b1101 ""
b110 B
b110 Q
b110 r
b111 k
b0 {
b1000000101000 j
b1000000100001 u
b10001 _
b10001 [
b1101 *
b110 y
b110 i
b10010001000000100001 h
b10010001000000100001 O
b10010001000000100001 a
b10010001000000100001 g
b110 N
b110 `
b110 f
b10100 D
b100100000100001 3"
b100100000100001 2"
b1001 5"
b1001 7"
b1000 6"
b1000010010100100000100001 9"
1C
1K
1A
#4000
0C
0K
0A
#4100
1e
b0 v
b0 '"
1l
b11 m
b11 x
b0 b
b0 }
b0 p
b0 ""
b0 ("
b0 w
b0 #"
b101 +"
b101 c
b101 $"
1."
1-"
00"
0t
0/"
0s
b10011 \
b10011 ^
b111 B
b111 Q
b111 r
b1000 k
b0 |
b11 j
b11111111111111111111111111111011 u
b11111 %"
b100 *"
b111011 )"
b10010 _
b10010 [
b1101 #
b111 y
b111 i
b10000000000001111111111111011 h
b10000000000001111111111111011 O
b10000000000001111111111111011 a
b10000000000001111111111111011 g
b111 N
b111 `
b111 f
b10101 D
b1000000100001 3"
b1000000100001 2"
b10 5"
b0 6"
b10010001000000100001 9"
1C
1K
1A
#4200
0C
0K
0A
#4300
b10101 ("
0e
b10101 w
b10101 #"
b1101 v
b1101 '"
0l
b1000 b
b1000 }
b1000 o
b1000 !"
b1000 &"
b1101 p
b1101 ""
b100 m
b100 x
10"
1t
1/"
1s
b0 +"
b0 c
b0 $"
0."
0-"
b10100 \
b10100 ^
b11 B
b11 Q
b11 r
b100 k
b1000 {
b1001 |
b100000000100101 j
b100000000100001 u
b0 %"
b0 *"
b100001 )"
b10011 _
b10011 [
b11 y
b11 i
b1000010010100000000100001 h
b1000010010100000000100001 O
b1000010010100000000100001 a
b1000010010100000000100001 g
b11 N
b11 `
b11 f
b10110 D
b1111111111111011 3"
b1111111111111011 2"
b11111 8"
b11111 5"
b0 7"
b111011 1"
b100 4"
b10000000000001111111111111011 9"
1C
1K
1A
#4400
0C
0K
0A
#4500
b10101 v
b10101 '"
b10101 ("
b10101 w
b10101 #"
b101 m
b101 x
b10 b
b10 }
b10101 p
b10101 ""
b10101 \
b10101 ^
b0 o
b0 !"
b0 &"
b100 B
b100 Q
b100 r
b101 k
b0 {
b1000 |
b1000000100110 j
b1000000100001 u
b10100 _
b10100 [
b10101 )
b100 y
b100 i
b10000001000000100001 h
b10000001000000100001 O
b10000001000000100001 a
b10000001000000100001 g
b100 N
b100 `
b100 f
b10111 D
b100000000100001 3"
b100000000100001 2"
b0 8"
b1000 5"
b1001 7"
b1000 6"
b100001 1"
b0 4"
b1000010010100000000100001 9"
1C
1K
1A
#4600
0C
0K
0A
#4700
b100010 ("
b100010 w
b100010 #"
b1101 v
b1101 '"
b110 m
b110 x
b1001 b
b1001 }
b10101 o
b10101 !"
b10101 &"
b1101 p
b1101 ""
b10110 \
b10110 ^
b101 B
b101 Q
b101 r
b110 k
b1000 {
b1001 |
b100100000100111 j
b100100000100001 u
b10101 _
b10101 [
b10101 #
b101 y
b101 i
b1000010010100100000100001 h
b1000010010100100000100001 O
b1000010010100100000100001 a
b1000010010100100000100001 g
b101 N
b101 `
b101 f
b11000 D
b1000000100001 3"
b1000000100001 2"
b10 5"
b1000 7"
b0 6"
b10000001000000100001 9"
1C
1K
1A
#4800
0C
0K
0A
#4900
b100010 v
b100010 '"
b111 m
b111 x
b10 b
b10 }
b0 o
b0 !"
b0 &"
b10111 \
b10111 ^
b100010 p
b100010 ""
b110 B
b110 Q
b110 r
b111 k
b0 {
b1000000101000 j
b1000000100001 u
b10110 _
b10110 [
b100010 *
b110 y
b110 i
b10010001000000100001 h
b10010001000000100001 O
b10010001000000100001 a
b10010001000000100001 g
b110 N
b110 `
b110 f
b11001 D
b100100000100001 3"
b100100000100001 2"
b1001 5"
b1001 7"
b1000 6"
b1000010010100100000100001 9"
1C
1K
1A
#5000
0C
0K
0A
#5100
1e
b0 v
b0 '"
1l
b11 m
b11 x
b0 b
b0 }
b0 p
b0 ""
b0 ("
b0 w
b0 #"
b101 +"
b101 c
b101 $"
1."
1-"
00"
0t
0/"
0s
b11000 \
b11000 ^
b111 B
b111 Q
b111 r
b1000 k
b0 |
b11 j
b11111111111111111111111111111011 u
b11111 %"
b100 *"
b111011 )"
b10111 _
b10111 [
b100010 #
b111 y
b111 i
b10000000000001111111111111011 h
b10000000000001111111111111011 O
b10000000000001111111111111011 a
b10000000000001111111111111011 g
b111 N
b111 `
b111 f
b11010 D
b1000000100001 3"
b1000000100001 2"
b10 5"
b0 6"
b10010001000000100001 9"
1C
1K
1A
#5200
0C
0K
0A
#5300
b110111 ("
0e
b110111 w
b110111 #"
b100010 v
b100010 '"
0l
b1000 b
b1000 }
b10101 o
b10101 !"
b10101 &"
b100010 p
b100010 ""
b100 m
b100 x
10"
1t
1/"
1s
b0 +"
b0 c
b0 $"
0."
0-"
b11001 \
b11001 ^
b11 B
b11 Q
b11 r
b100 k
b1000 {
b1001 |
b100000000100101 j
b100000000100001 u
b0 %"
b0 *"
b100001 )"
b11000 _
b11000 [
b11 y
b11 i
b1000010010100000000100001 h
b1000010010100000000100001 O
b1000010010100000000100001 a
b1000010010100000000100001 g
b11 N
b11 `
b11 f
b11011 D
b1111111111111011 3"
b1111111111111011 2"
b11111 8"
b11111 5"
b0 7"
b111011 1"
b100 4"
b10000000000001111111111111011 9"
1C
1K
1A
#5400
0C
0K
0A
#5500
b110111 v
b110111 '"
b110111 ("
b110111 w
b110111 #"
b101 m
b101 x
b10 b
b10 }
b110111 p
b110111 ""
b11010 \
b11010 ^
b0 o
b0 !"
b0 &"
b100 B
b100 Q
b100 r
b101 k
b0 {
b1000 |
b1000000100110 j
b1000000100001 u
b11001 _
b11001 [
b110111 )
b100 y
b100 i
b10000001000000100001 h
b10000001000000100001 O
b10000001000000100001 a
b10000001000000100001 g
b100 N
b100 `
b100 f
b11100 D
b100000000100001 3"
b100000000100001 2"
b0 8"
b1000 5"
b1001 7"
b1000 6"
b100001 1"
b0 4"
b1000010010100000000100001 9"
1C
1K
1A
#5600
0C
0K
0A
